id,name,model_id:id,group_id:id,perm_read,perm_write,perm_create,perm_unlink
access_product_template_nutrient,access_product_template_nutrient,model_product_template_nutrient,base.group_user,1,0,0,0
access_product_nutrient,access_product_nutrient,model_product_nutrient,base.group_user,1,0,0,0
access_res_users_meal,access_res_users_meal,model_res_users_meal,base.group_user,1,0,0,0
access_res_users_mealitem,access_res_users_mealitem,model_res_users_mealitem,base.group_user,1,0,0,0
